cod,ds_presenca
222,Ausente
333,Resultado desconsiderado por inscrição indevida
334,Eliminado por participação indevida
444,Ausente devido a dupla graduação
555,Presente com resultado válido
556,Presente com resultado desconsiderado pela Aplicadora
888,Presente com resultado desconsiderado pelo Inep
999,Presente por Ação judicial